<svg xmlns="http://www.w3.org/2000/svg" width="14" height="14" viewBox="0 0 14 14">

    <g id="icon-phone" data-size="24 23">
        <path fill-rule="evenodd"  d="M23.312,9.912 C23.295,9.914 23.279,9.915 23.263,9.915 C22.875,9.915 22.549,9.613 22.523,9.221 C22.389,7.205 21.536,5.313 20.120,3.892 C18.707,2.472 16.821,1.614 14.811,1.479 C14.403,1.451 14.094,1.097 14.121,0.687 C14.149,0.278 14.499,-0.032 14.911,-0.003 C17.280,0.156 19.503,1.167 21.169,2.842 C22.839,4.517 23.845,6.747 24.003,9.122 C24.030,9.532 23.720,9.885 23.312,9.912 ZM14.665,3.611 C16.158,3.712 17.560,4.349 18.611,5.405 C19.662,6.459 20.295,7.865 20.395,9.362 C20.423,9.771 20.114,10.126 19.705,10.153 C19.688,10.154 19.672,10.155 19.655,10.155 C19.268,10.155 18.942,9.853 18.916,9.461 C18.840,8.323 18.359,7.256 17.562,6.456 C16.764,5.655 15.699,5.171 14.564,5.094 C14.156,5.066 13.848,4.712 13.875,4.302 C13.903,3.894 14.249,3.584 14.665,3.611 ZM14.445,6.871 C15.154,6.921 15.815,7.219 16.308,7.713 C16.800,8.208 17.097,8.871 17.143,9.581 C17.170,9.990 16.860,10.344 16.452,10.371 C16.435,10.372 16.419,10.373 16.403,10.373 C16.015,10.373 15.689,10.071 15.664,9.678 C15.648,9.430 15.565,9.070 15.259,8.763 C14.953,8.456 14.591,8.371 14.342,8.354 C13.934,8.325 13.626,7.970 13.654,7.560 C13.682,7.151 14.032,6.844 14.445,6.871 ZM12.225,17.079 C12.695,16.366 14.355,14.579 15.125,13.762 C15.577,13.309 16.178,13.060 16.818,13.060 C17.429,13.060 18.009,13.289 18.453,13.705 L22.189,16.451 C22.229,16.480 22.267,16.513 22.302,16.547 C22.753,17.001 23.001,17.604 23.001,18.246 C23.001,18.888 22.753,19.490 22.301,19.943 L20.013,22.237 C19.307,22.946 17.079,23.000 16.414,23.000 C15.700,23.000 14.956,22.950 14.260,22.855 C11.763,22.514 8.107,21.425 4.868,18.177 C-1.953,11.341 0.101,4.163 1.042,3.220 L3.229,1.028 C3.680,0.575 4.282,0.326 4.924,0.326 C5.564,0.326 6.166,0.575 6.619,1.029 C6.646,1.057 6.673,1.087 6.696,1.117 L9.533,4.762 C9.961,5.208 10.196,5.798 10.196,6.421 C10.196,7.063 9.948,7.666 9.491,8.125 L6.011,11.418 C7.527,15.023 11.084,16.721 12.225,17.079 Z"/>
    </g>

    <g id="icon-cart" data-size="21 22">
        <path fill-rule="evenodd" d="M7.699,17.874 C8.859,17.874 9.799,18.798 9.799,19.937 C9.799,21.076 8.859,22.000 7.699,22.000 C6.539,22.000 5.599,21.076 5.599,19.937 C5.599,18.798 6.539,17.874 7.699,17.874 ZM12.598,19.937 C12.598,21.076 13.539,22.000 14.698,22.000 C15.858,22.000 16.798,21.076 16.798,19.937 C16.798,18.798 15.858,17.874 14.698,17.874 C13.539,17.874 12.598,18.798 12.598,19.937 ZM1.400,2.749 L2.604,2.749 L5.679,9.317 C3.765,10.225 2.963,12.484 3.887,14.363 C4.528,15.669 5.873,16.499 7.349,16.499 L17.498,16.499 C18.271,16.499 18.898,15.884 18.898,15.125 C18.898,14.365 18.271,13.749 17.498,13.749 L7.349,13.749 C6.769,13.749 6.299,13.288 6.299,12.718 C6.299,12.148 6.769,11.687 7.349,11.687 L16.098,11.687 C16.606,11.687 17.074,11.415 17.321,10.979 L20.820,4.791 C21.196,4.128 20.952,3.290 20.277,2.921 C20.277,2.921 20.277,2.921 20.276,2.921 C20.069,2.808 19.835,2.749 19.598,2.749 L19.598,2.749 L5.683,2.749 L4.771,0.799 C4.542,0.312 4.046,-0.001 3.499,-0.001 L1.400,-0.001 C0.627,-0.001 -0.000,0.615 -0.000,1.374 C-0.000,2.134 0.627,2.749 1.400,2.749 Z"/>
    </g>

    <g id="icon-arrow-right" data-size="15 11">
        <path fill-rule="evenodd" d="M9.319,0.000 L7.841,1.450 L10.948,4.499 L0.943,4.499 L0.943,6.500 L10.948,6.500 L7.841,9.549 L9.319,10.999 L14.923,5.500 L9.319,0.000 Z"/>
    </g>

    <g id="icon-credit" data-size="51 36">
        <path fill-rule="evenodd" d="M49.254,35.994 L1.742,35.994 C0.780,35.994 -0.001,35.212 -0.001,34.247 L-0.001,1.745 C-0.001,0.780 0.780,-0.002 1.742,-0.002 L49.254,-0.002 C50.217,-0.002 50.997,0.780 50.997,1.745 L50.997,34.247 C50.997,35.212 50.217,35.994 49.254,35.994 ZM47.512,3.493 L3.484,3.493 L3.484,5.997 L47.512,5.997 L47.512,3.493 ZM47.512,14.967 L3.484,14.967 L3.484,32.499 L47.512,32.499 L47.512,14.967 ZM27.705,22.772 L7.550,22.772 L7.550,19.277 L27.705,19.277 L27.705,22.772 ZM23.058,28.597 L7.550,28.597 L7.550,25.102 L23.058,25.102 L23.058,28.597 ZM33.688,17.530 L41.645,17.530 C42.608,17.530 43.388,18.312 43.388,19.277 L43.388,27.403 C43.388,28.368 42.608,29.150 41.645,29.150 L33.688,29.150 C32.725,29.150 31.945,28.368 31.945,27.403 L31.945,19.277 C31.945,18.312 32.725,17.530 33.688,17.530 Z"/>
    </g>

    <g id="icon-play" data-size="60 38">
    <path fill-rule="evenodd" d="M5.921,-0.000 C2.643,-0.000 -0.000,2.650 -0.000,5.937 L-0.000,32.062 C-0.000,35.349 2.643,37.999 5.921,37.999 L54.079,37.999 C57.356,37.999 60.000,35.349 60.000,32.062 L60.000,5.937 C60.000,2.650 57.356,-0.000 54.079,-0.000 L5.921,-0.000 ZM26.077,8.683 C26.340,8.667 26.609,8.709 26.842,8.856 L41.028,17.564 C41.977,18.127 41.977,19.872 41.028,20.435 L26.842,29.143 C25.955,29.710 24.615,28.976 24.523,27.881 C24.520,27.823 24.520,27.766 24.523,27.708 L24.523,10.291 C24.511,9.426 25.289,8.730 26.077,8.683 Z"/>
    </g>

    <g id="menu-main" data-size="18 18">
    </g>
</svg>
